[{
        "tppOrganizationId": "nBRcYAcACnghbGFOBk",
        "tppRoles": [
            "PISP",
            "AISP"
        ],
        "tppPhoneNumber": null,
        "tppMemberStateCompetentAuthority": "GB",
        "tppEmailID": null,
        "tppRegistrationID": "BankofIrelandPLC3",
        "organizationName": "Bank of Ireland TPP - AISP and PISP"
    },
    {
        "tppOrganizationId": "Q5wqFjpnTAeCtDc1Qx",
        "tppRoles": [
            "PISP"
        ],
        "tppPhoneNumber": null,
        "tppMemberStateCompetentAuthority": "GB",
        "tppEmailID": null,
        "tppRegistrationID": "BankofIrelandPLC2",
        "organizationName": "Bank of Ireland TPP - PISP"
    }
]